{
    "page_count": 2,
    "page_number": 1,
    "page_size": 30,
    "total_records": 40,
    "meetings": [
        {
            "uuid": "o9Z5DdiaRMSRnEjsLpoZXg==",
            "id": 89732981676,
            "hostId": 0,
            "topic": "Ananthu Vruthu meeting with Wissda HR",
            "type": 2,
            "start_time": "2023-05-30T10:00:00",
            "duration": 30,
            "timezone": "Asia/Calcutta",
            "created_at": "2023-05-29T08:30:35Z",
            "join_url": "https://us05web.zoom.us/j/89732981676?pwd=OWRaNWp3aWxlKzZ5VW53c1d4TG9LZz09",
            "name": "Ananthu Vruthu"
        },
        {
            "uuid": "tKuVZha+RCmQC8XXLYPx3Q==",
            "id": 88136928688,
            "hostId": 0,
            "topic": "Test Meeting From Shaksha",
            "type": 2,
            "start_time": "2023-05-30T12:00:00",
            "duration": 30,
            "timezone": "Asia/Calcutta",
            "created_at": "2023-05-30T06:26:13Z",
            "join_url": "https://us05web.zoom.us/j/88136928688?pwd=TW5BVnNmMnRFd3Vqb3JCNWZDR1V1UT09",
            "name": "Test Meeting From Shaksha"
        },
        {
            "uuid": "edRN7mk8RIW976dd+hxjpg==",
            "id": 81411388195,
            "hostId": 0,
            "topic": "Ananthu Vruthu meeting with Wissda HR",
            "type": 2,
            "start_time": "2023-05-30T12:30:54",
            "duration": 30,
            "timezone": "Asia/Calcutta",
            "created_at": "2023-05-30T06:55:54Z",
            "join_url": "https://us05web.zoom.us/j/81411388195?pwd=WTl5MEJIeld3QkYrZHdDTTFDQTJyUT09",
            "name": "Ananthu Vruthu"
        },
        {
            "uuid": "TzDFRmrlRuq847iVHWt5sA==",
            "id": 82674715308,
            "hostId": 0,
            "topic": "ab b meeting with Wissda HR",
            "type": 2,
            "start_time": "2023-05-30T13:28:33",
            "duration": 30,
            "timezone": "Asia/Calcutta",
            "created_at": "2023-05-30T07:58:33Z",
            "join_url": "https://us05web.zoom.us/j/82674715308?pwd=UXdzYjloSC9qbGRBb0xnRkFINTlaQT09",
            "name": "ab b"
        },
        {
            "uuid": "m8hCG7hhSBKySxq2pJmyBg==",
            "id": 89827788745,
            "hostId": 0,
            "topic": "ab b meeting with Wissda HR",
            "type": 2,
            "start_time": "2023-05-30T14:00:33",
            "duration": 30,
            "timezone": "Asia/Calcutta",
            "created_at": "2023-05-30T07:59:33Z",
            "join_url": "https://us05web.zoom.us/j/89827788745?pwd=QUJhSzJWQ2FURmNxN1Q0RnV1Z1ZtUT09",
            "name": "ab b"
        },
        {
            "uuid": "OUdcCrXtTLWDM9plw+Onlg==",
            "id": 86398889547,
            "hostId": 0,
            "topic": "ab b meeting with Wissda HR",
            "type": 2,
            "start_time": "2023-05-30T13:29:56",
            "duration": 30,
            "timezone": "Asia/Calcutta",
            "created_at": "2023-05-30T07:59:56Z",
            "join_url": "https://us05web.zoom.us/j/86398889547?pwd=WStKSWdXOWtCQnN3OU9kMlFaQWJYQT09",
            "name": "ab b"
        },
        {
            "uuid": "P73P7v2qRie5PureAu3fjA==",
            "id": 86442051086,
            "hostId": 0,
            "topic": "harry potter meeting with Wissda HR",
            "type": 2,
            "start_time": "2023-05-30T14:00:08",
            "duration": 30,
            "timezone": "Asia/Calcutta",
            "created_at": "2023-05-30T08:30:09Z",
            "join_url": "https://us05web.zoom.us/j/86442051086?pwd=MWhSVUlCQmhEV3o5ejJhRktWVUlpQT09",
            "name": "harry potter"
        },
        {
            "uuid": "Mf9bNL1mQt6KCiIlRv88lw==",
            "id": 84350748995,
            "hostId": 0,
            "topic": "harry potter meeting with Wissda HR",
            "type": 2,
            "start_time": "2023-05-30T14:22:10",
            "duration": 30,
            "timezone": "Asia/Calcutta",
            "created_at": "2023-05-30T08:52:10Z",
            "join_url": "https://us05web.zoom.us/j/84350748995?pwd=bjVUMjZKL0dHaFdCUm45MitGVFNEZz09",
            "name": "harry potter"
        },
        {
            "uuid": "NKVVpDhfS9KBQpSdmNsZ/w==",
            "id": 83070390558,
            "hostId": 0,
            "topic": "harry potter meeting with Wissda HR",
            "type": 2,
            "start_time": "2023-05-30T14:23:38",
            "duration": 30,
            "timezone": "Asia/Calcutta",
            "created_at": "2023-05-30T08:53:38Z",
            "join_url": "https://us05web.zoom.us/j/83070390558?pwd=NC9NRjIrN3ZadFVVNlRvQ2kvOEFoQT09",
            "name": "harry potter"
        },
        {
            "uuid": "RRr4TKKDTn6orfUAIwZGFw==",
            "id": 87940776850,
            "hostId": 0,
            "topic": "harry potter meeting with Wissda HR",
            "type": 2,
            "start_time": "2023-05-30T14:24:18",
            "duration": 30,
            "timezone": "Asia/Calcutta",
            "created_at": "2023-05-30T08:54:18Z",
            "join_url": "https://us05web.zoom.us/j/87940776850?pwd=N01OREJNckh2S3VtM1k0QURQeGczQT09",
            "name": "harry potter"
        },
        {
            "uuid": "cCm7lrlsQ6CzpICsKOyTAQ==",
            "id": 83068539957,
            "hostId": 0,
            "topic": "harry potter meeting with Wissda HR",
            "type": 2,
            "start_time": "2023-05-30T14:25:00",
            "duration": 30,
            "timezone": "Asia/Calcutta",
            "created_at": "2023-05-30T08:55:00Z",
            "join_url": "https://us05web.zoom.us/j/83068539957?pwd=NEh0YTVZKzJob0Y1WENSQjdMajdvUT09",
            "name": "harry potter"
        },
        {
            "uuid": "xx2VEYYuR9qxwlXiLmYEtw==",
            "id": 89071250001,
            "hostId": 0,
            "topic": "harry potter meeting with Wissda HR",
            "type": 2,
            "start_time": "2023-05-30T14:26:18",
            "duration": 30,
            "timezone": "Asia/Calcutta",
            "created_at": "2023-05-30T08:56:18Z",
            "join_url": "https://us05web.zoom.us/j/89071250001?pwd=dlN1RW1KblpBR2VWZkRKYW9aVkQ5QT09",
            "name": "harry potter"
        },
        {
            "uuid": "NWs9+FxoSreC+s7ZKdxFDA==",
            "id": 83578151763,
            "hostId": 0,
            "topic": "harry potter meeting with Wissda HR",
            "type": 2,
            "start_time": "2023-05-30T14:26:55",
            "duration": 30,
            "timezone": "Asia/Calcutta",
            "created_at": "2023-05-30T08:56:55Z",
            "join_url": "https://us05web.zoom.us/j/83578151763?pwd=Y2Mzc0ovNXpqM3hMQkhwSFBXVUpPQT09",
            "name": "harry potter"
        },
        {
            "uuid": "kPmR4t25SKqTC9jK//oysg==",
            "id": 88074456884,
            "hostId": 0,
            "topic": "harry potter meeting with Wissda HR",
            "type": 2,
            "start_time": "2023-05-30T14:27:13",
            "duration": 30,
            "timezone": "Asia/Calcutta",
            "created_at": "2023-05-30T08:57:13Z",
            "join_url": "https://us05web.zoom.us/j/88074456884?pwd=R3pWM0xZM1pKVW1YRnJCWmtrYTd4dz09",
            "name": "harry potter"
        },
        {
            "uuid": "Id8G7po0QKi/XtMrTISECg==",
            "id": 89509301606,
            "hostId": 0,
            "topic": "harry potter meeting with Wissda HR",
            "type": 2,
            "start_time": "2023-05-30T14:31:01",
            "duration": 30,
            "timezone": "Asia/Calcutta",
            "created_at": "2023-05-30T09:01:01Z",
            "join_url": "https://us05web.zoom.us/j/89509301606?pwd=U1NuMFFHUDBMbHQ5b2JkV3FVMWVxQT09",
            "name": "harry potter"
        },
        {
            "uuid": "xv0UjvGtTgSv8mf3jP5fZw==",
            "id": 84372116766,
            "hostId": 0,
            "topic": "harry potter interview with Wissda HR",
            "type": 2,
            "start_time": "2023-05-30T16:06:27",
            "duration": 30,
            "timezone": "Asia/Calcutta",
            "created_at": "2023-05-30T10:36:27Z",
            "join_url": "https://us05web.zoom.us/j/84372116766?pwd=a1lMRzNrcWt1TlVEL2d3bXlWQXRSUT09",
            "name": "harry potter"
        },
        {
            "uuid": "r9zyvXcjQEWWkeoTz3oTHA==",
            "id": 89557336128,
            "hostId": 0,
            "topic": "harry potter interview with Wissda HR",
            "type": 2,
            "start_time": "2023-05-30T16:10:00",
            "duration": 30,
            "timezone": "Asia/Calcutta",
            "created_at": "2023-05-30T10:40:00Z",
            "join_url": "https://us05web.zoom.us/j/89557336128?pwd=dElob040TWhVRGtEZy9jRVpBK284QT09",
            "name": "harry potter"
        },
        {
            "uuid": "L0oMIkKMTkG5Dq9TGdqUDA==",
            "id": 83962375335,
            "hostId": 0,
            "topic": "harry potter interview with Wissda HR",
            "type": 2,
            "start_time": "2023-05-30T16:11:04",
            "duration": 30,
            "timezone": "Asia/Calcutta",
            "created_at": "2023-05-30T10:41:04Z",
            "join_url": "https://us05web.zoom.us/j/83962375335?pwd=QVNHN01XbzczK1FjRnVKbXhuZVpKQT09",
            "name": "harry potter"
        },
        {
            "uuid": "STP10aunRzWGPOGcHQBwTg==",
            "id": 83538756763,
            "hostId": 0,
            "topic": "harry potter interview with Wissda HR",
            "type": 2,
            "start_time": "2023-05-30T17:30:00",
            "duration": 30,
            "timezone": "Asia/Calcutta",
            "created_at": "2023-05-30T10:45:48Z",
            "join_url": "https://us05web.zoom.us/j/83538756763?pwd=ZWUrS1A0MGg2NTF5SXF0K2xhRFloZz09",
            "name": "harry potter"
        },
        {
            "uuid": "S8JsX1GFRJWToLVwbzVyog==",
            "id": 85166193571,
            "hostId": 0,
            "topic": "Example Meeting",
            "type": 2,
            "start_time": "2023-05-30T19:00:00",
            "duration": 30,
            "timezone": "Asia/Calcutta",
            "created_at": "2023-05-29T08:33:34Z",
            "join_url": "https://us05web.zoom.us/j/85166193571?pwd=K09KNzExYUh1cURSZGpwcTJselgyQT09",
            "name": "Example Meeting"
        },
        {
            "uuid": "ku//ScQkTZq/cpBdOb0KXw==",
            "id": 89036971527,
            "hostId": 0,
            "topic": "Example Meeting",
            "type": 2,
            "start_time": "2023-05-30T19:00:00",
            "duration": 30,
            "timezone": "Asia/Calcutta",
            "created_at": "2023-05-29T05:52:24Z",
            "join_url": "https://us05web.zoom.us/j/89036971527?pwd=TlZLYno5SmZCQ3hYVVV6TWlsY2s2dz09",
            "name": "Example Meeting"
        },
        {
            "uuid": "dNxM6aDzTJK/qUmZG2sDPg==",
            "id": 87976427155,
            "hostId": 0,
            "topic": "s ds meeting with Wissda HR",
            "type": 2,
            "start_time": "2023-05-30T20:00:00",
            "duration": 30,
            "timezone": "Asia/Calcutta",
            "created_at": "2023-05-23T13:40:17Z",
            "join_url": "https://us05web.zoom.us/j/87976427155?pwd=ZURHTlptOHFNaFpmVUtoN1dXNytjZz09",
            "name": "s ds"
        },
        {
            "uuid": "ViZUeh/GQSWd7wIz4X78tg==",
            "id": 87231109854,
            "hostId": 0,
            "topic": "s ds meeting with Wissda HR",
            "type": 2,
            "start_time": "2023-05-30T20:00:00",
            "duration": 30,
            "timezone": "Asia/Calcutta",
            "created_at": "2023-05-23T13:42:58Z",
            "join_url": "https://us05web.zoom.us/j/87231109854?pwd=S3ptaTl4cGY2K2dVbHAwNk5CS0pYdz09",
            "name": "s ds"
        },
        {
            "uuid": "a6gTUactRPayYpEAU4PKEQ==",
            "id": 82880802717,
            "hostId": 0,
            "topic": "Ananthu Vruthu meeting with Wissda HR",
            "type": 2,
            "start_time": "2023-05-30T20:00:00",
            "duration": 30,
            "timezone": "Asia/Calcutta",
            "created_at": "2023-05-23T17:53:17Z",
            "join_url": "https://us05web.zoom.us/j/82880802717?pwd=US80a0FoUU9JdjZLWUdhekxOVG5wZz09",
            "name": "Ananthu Vruthu"
        },
        {
            "uuid": "VJx9b84pRYmfCOxExBmiZw==",
            "id": 83246629126,
            "hostId": 0,
            "topic": "Ananthu Vruthu meeting with Wissda HR",
            "type": 2,
            "start_time": "2023-05-30T20:00:00",
            "duration": 30,
            "timezone": "Asia/Calcutta",
            "created_at": "2023-05-24T05:52:18Z",
            "join_url": "https://us05web.zoom.us/j/83246629126?pwd=U25oWnpQZHhKb3lPY1JIRTZ6SUVFUT09",
            "name": "Ananthu Vruthu"
        },
        {
            "uuid": "M2P81bTrT+Ws8fBJ9bDASA==",
            "id": 87078768297,
            "hostId": 0,
            "topic": "s ds meeting with Wissda HR",
            "type": 2,
            "start_time": "2023-05-30T20:00:00",
            "duration": 30,
            "timezone": "Asia/Calcutta",
            "created_at": "2023-05-23T13:40:42Z",
            "join_url": "https://us05web.zoom.us/j/87078768297?pwd=Y0puYVlScHVJWmMxZXVtZXBON1QzUT09",
            "name": "s ds"
        },
        {
            "uuid": "lxa0SszER3Ws4O6ArIKB9w==",
            "id": 88089838555,
            "hostId": 0,
            "topic": "s ds meeting with Wissda HR",
            "type": 2,
            "start_time": "2023-05-30T20:00:00",
            "duration": 30,
            "timezone": "Asia/Calcutta",
            "created_at": "2023-05-23T13:34:56Z",
            "join_url": "https://us05web.zoom.us/j/88089838555?pwd=NGxrVFN1Zlp6NXV6bXlSMW9GSVdaZz09",
            "name": "s ds"
        },
        {
            "uuid": "prhpLbkNQ1asYHqYCU0PKg==",
            "id": 81949836090,
            "hostId": 0,
            "topic": "s ds meeting with Wissda HR",
            "type": 2,
            "start_time": "2023-05-30T20:00:00",
            "duration": 30,
            "timezone": "Asia/Calcutta",
            "created_at": "2023-05-23T13:39:40Z",
            "join_url": "https://us05web.zoom.us/j/81949836090?pwd=MzlwckttV1dORSszWjNlMFNWTXE4dz09",
            "name": "s ds"
        },
        {
            "uuid": "zdv/aqyXRoeTWHFqYux6rQ==",
            "id": 81682476436,
            "hostId": 0,
            "topic": "s ds meeting with Wissda HR",
            "type": 2,
            "start_time": "2023-05-30T20:00:00",
            "duration": 30,
            "timezone": "Asia/Calcutta",
            "created_at": "2023-05-23T17:51:40Z",
            "join_url": "https://us05web.zoom.us/j/81682476436?pwd=OXZCcGxsdkYzWi9RcWU3K3p6OG1zdz09",
            "name": "s ds"
        },
        {
            "uuid": "k2ZtBBG+RZqmEaz/ZHm8uQ==",
            "id": 82215119743,
            "hostId": 0,
            "topic": "s ds meeting with Wissda HR",
            "type": 2,
            "start_time": "2023-05-30T20:00:00",
            "duration": 30,
            "timezone": "Asia/Calcutta",
            "created_at": "2023-05-23T13:41:05Z",
            "join_url": "https://us05web.zoom.us/j/82215119743?pwd=U3FudE91QVhYWGF4MDBkaGNyQWdHUT09",
            "name": "s ds"
        }
    ]
}